{
  "totalPages": 30,
  "totalElements": 300,
  "islast": false,
  "content": [
    {
      "id": 11,
      "name": "[역삼동]강남문화재단-강남합창단 기획공연 엄마 아빠가 들려주는 예쁜 동요 그리고 강아지똥",
      "infoType": "문화행사",
      "borough": "강남구",
      "ageType": "연령무관",
      "latitude": "127.03329",
      "longitude": "37.49537",
      "address": "서울특별시 강남구 역삼로7길 163층 역삼씨어터 (역삼동)",
      "isFree": true,
      "fee": "",
      "startAt": "2023-05-18",
      "endAt": "2023-05-18",
      "infoUrl": "https://www.gangnam.go.kr/office/gfac/board/gfac_perform08/13/view.do?mid=gfac_perform0102",
      "facilityName": "EVENT_FCLTY_NM"
    },
    {
      "id": 12,
      "name": "[문화행사] 가정의 달 맞이 <똥 돼지 왕 방귀> 인형극",
      "infoType": "문화행사",
      "borough": "은평구",
      "ageType": "연령무관",
      "latitude": "126.90767",
      "longitude": "37.58281",
      "address": "서울특별시 은평구 증산로5길 6구립증산정보도서관 (증산동)",
      "isFree": true,
      "fee": "",
      "startAt": "2023-04-30",
      "endAt": "2023-05-04",
      "infoUrl": "https://www.jsplib.or.kr/culture/event.asp?mode=view&lecture_seq=1683&listname=normal",
      "facilityName": "EVENT_FCLTY_NM"
    },
    {
      "id": 13,
      "name": "[광진구]2023 한강불빛공연 드론라이트쇼",
      "infoType": "문화행사",
      "borough": "광진구",
      "ageType": "연령무관",
      "latitude": "127.07397",
      "longitude": "37.52935",
      "address": "서울특별시 광진구 강변북로 2273수변무대 (자양동)",
      "isFree": true,
      "fee": "",
      "startAt": "2023-04-29",
      "endAt": "2023-05-06",
      "infoUrl": "https://hangang.seoul.go.kr/www/eventMng/detail.do?&evntSn=59&mid=538",
      "facilityName": "EVENT_FCLTY_NM"
    },
    {
      "id": 14,
      "name": "도서관 로비 체험 행사 <봄동산 투명볼 만들기>",
      "infoType": "문화행사",
      "borough": "은평구",
      "ageType": "연령무관",
      "latitude": "126.90767",
      "longitude": "37.58281",
      "address": "서울특별시 은평구 증산로5길 6구립증산정보도서관 (증산동)",
      "isFree": true,
      "fee": "",
      "startAt": "2023-04-28",
      "endAt": "2023-04-29",
      "infoUrl": "https://www.jsplib.or.kr/culture/event.asp?mode=view&lecture_seq=1676&listname=normal",
      "facilityName": "EVENT_FCLTY_NM"
    },
    {
      "id": 15,
      "name": "[고갯미루 어린이공원] 삼각산동 나눔장터",
      "infoType": "문화행사",
      "borough": "강북구",
      "ageType": "연령무관",
      "latitude": "127.01607",
      "longitude": "37.61651",
      "address": "서울특별시 강북구 삼양로19길 132 (미아동)",
      "isFree": true,
      "fee": "",
      "startAt": "2023-04-29",
      "endAt": "2023-04-29",
      "infoUrl": "",
      "facilityName": "EVENT_FCLTY_NM"
    },
    {
      "id": 16,
      "name": "[논현동]-강남구 육아종합지원센터-[육아 지원 코디네이터] -부모 자조모임 1기 모집 '부모 행복 이끎이 '",
      "infoType": "문화행사",
      "borough": "강남구",
      "ageType": "연령무관",
      "latitude": "127.05522309475533",
      "longitude": "37.51149826314972",
      "address": "서울특별시 강남구 봉은사로82길 23, 3층",
      "isFree": true,
      "fee": "",
      "startAt": "2023-05-08",
      "endAt": "2023-06-26",
      "infoUrl": "https://www.gncare.go.kr/main/main.php",
      "facilityName": "EVENT_FCLTY_NM"
    },
    {
      "id": 17,
      "name": "[논현동]-강남구 육아종합지원센터-[육아 지원 코디네이터] 부모 자조모임 1기 모집 '아이랑 책놀이'",
      "infoType": "문화행사",
      "borough": "강남구",
      "ageType": "연령무관",
      "latitude": "127.03721",
      "longitude": "37.51728",
      "address": "서울특별시 강남구 학동로43길 17, 2층",
      "isFree": true,
      "fee": "",
      "startAt": "2023-05-17",
      "endAt": "2023-06-21",
      "infoUrl": "https://www.gncare.go.kr/main/main.php?categoryid=02&menuid=06&groupid=04",
      "facilityName": "EVENT_FCLTY_NM"
    },
    {
      "id": 18,
      "name": "[어린이날 특별행사] 항박주간 ",
      "infoType": "문화행사",
      "borough": "강서구",
      "ageType": "연령무관",
      "latitude": "126.80862",
      "longitude": "37.55669",
      "address": "서울특별시 강서구 하늘길 177국립항공박물관 (공항동)",
      "isFree": true,
      "fee": "",
      "startAt": "2023-04-30",
      "endAt": "2023-05-06",
      "infoUrl": "https://m.blog.naver.com/PostView.naver?blogId=aviationmuseum&logNo=223086638685&proxyReferer=https:%2F%2Fl.instagram.com%2F",
      "facilityName": "EVENT_FCLTY_NM"
    },
    {
      "id": 19,
      "name": "[강서도서관] 피터 래빗2",
      "infoType": "문화행사",
      "borough": "강서구",
      "ageType": "연령무관",
      "latitude": "126.85993",
      "longitude": "37.5479",
      "address": "서울특별시 강서구 등촌로51나길 29 (등촌동)",
      "isFree": true,
      "fee": "",
      "startAt": "2023-04-29",
      "endAt": "2023-04-29",
      "infoUrl": "https://gslib.sen.go.kr/gslib",
      "facilityName": "EVENT_FCLTY_NM"
    },
    {
      "id": 20,
      "name": "[대조꿈나무어린이도서관]어린이날기념 꿈나무잔치",
      "infoType": "문화행사",
      "borough": "은평구",
      "ageType": "연령무관",
      "latitude": "126.92073",
      "longitude": "37.61383",
      "address": "서울특별시 은평구 연서로20길 24-6 (대조동)",
      "isFree": true,
      "fee": "",
      "startAt": "2023-05-03",
      "endAt": "2023-05-06",
      "infoUrl": "https://cafe.naver.com/djkkumnamulib",
      "facilityName": "EVENT_FCLTY_NM"
    }
  ]
}
